%YAML 1.1
%TAG !u! tag:unity3d.com,2011:
--- !u!1045 &1
EditorBuildSettings:
  m_ObjectHideFlags: 0
  serializedVersion: 2
  m_Scenes:
  - enabled: 1
    path: Assets/Level/Scenes/StoreGame/Title.unity
    guid: 7c2fec3b8bd50ec46a8e2f2e1f2c3c18
  - enabled: 1
    path: Assets/Level/Scenes/StoreGame/Book.unity
    guid: 0c80e5d876c411b4c85c934d94828ba4
  - enabled: 1
    path: Assets/Level/Scenes/StoreGame/Prologue.unity
    guid: 427071fe0438ca743b77775937fbc0cc
  - enabled: 1
    path: Assets/Level/Scenes/StoreGame/Tutorial.unity
    guid: 5f6bb807c3532f548b2354ee2d07186a
  - enabled: 1
    path: Assets/Level/Scenes/StoreGame/Game.unity
    guid: 8930536d0a1b46c47afe8f2058a34af5
  - enabled: 1
    path: Assets/Level/Scenes/StoreGame/GameNext.unity
    guid: 45860cf4e3a388f4f89359c33e1b8e9d
  - enabled: 1
    path: Assets/Level/Scenes/StoreGame/Epilogue.unity
    guid: d185395db51290b4994e0ab8779fb6b9
  - enabled: 1
    path: Assets/Level/Scenes/StoreGame/Shop.unity
    guid: 4169d6c399f9aa74cb4a48cc8b451dbe
  - enabled: 1
    path: Assets/Level/Scenes/StoreGame/Credits.unity
    guid: ddee62c6be2fa924ab78050d8998c494
  - enabled: 1
    path: Assets/Level/Scenes/StoreGame/Tour.unity
    guid: e0208dcd13e8ab24b8bdca3c3a119baa
  - enabled: 1
    path: Assets/Level/Scenes/StoreGame/MyStage.unity
    guid: c4a9874f79b15204ca3b2bbe351e97ee
  m_configObjects: {}
