%YAML 1.1
%TAG !u! tag:unity3d.com,2011:
--- !u!162 &1
EditorUserSettings:
  m_ObjectHideFlags: 0
  serializedVersion: 4
  m_ConfigSettings:
    RecentlyUsedScenePath-0:
      value: 22424703114646770818092e5f134d1510161a39630f273d28662e27edf2311fe3ea33a6c536303f324dbd245671263eff0f471ef8021e12
      flags: 0
    RecentlyUsedScenePath-1:
      value: 22424703114646770818092e5f105c1518120b651f3c2922280e1c3ee7af1128ebeb39eef23f7129370bfb25
      flags: 0
    RecentlyUsedScenePath-2:
      value: 22424703114646770818092e5f105c1518120b651f3c2922280e1c3ee7af0037f7f578fce9332b25
      flags: 0
    RecentlyUsedScenePath-3:
      value: 22424703114646770818092e5f105c1518120b651f3c2922280e1c3ee7af002df6e824e0e6367129370bfb25
      flags: 0
    RecentlyUsedScenePath-4:
      value: 22424703114646770818092e5f105c1518120b651f3c2922280e1c3ee7af1339efe278fce9332b25
      flags: 0
    RecentlyUsedScenePath-5:
      value: 22424703114646770818092e5f105c1518120b657c786814282b0834adc23837e1ec78fce9332b25
      flags: 0
    RecentlyUsedScenePath-6:
      value: 22424703114646770818092e5f105c1518120b657c786814282b0834adc53928f6fe78fce9332b25
      flags: 0
    RecentlyUsedScenePath-7:
      value: 22424703114646770818092e5f105c1518120b651f3c2922280e1c3ee7af0730edf778fce9332b25
      flags: 0
    RecentlyUsedScenePath-8:
      value: 22424703114646770818092e5f105c1518120b651f3c2922280e1c3ee7af172ae7e33ffdf4742a323016f6
      flags: 0
    RecentlyUsedScenePath-9:
      value: 22424703114646770818092e5f105c1518120b651f3c2922280e1c3ee7af0031f6eb33a7f234362820
      flags: 0
    UnityEditor.ShaderGraph.Blackboard:
      value: 18135939215a0a5004000b0e15254b524c030a3f2964643d120d1230e9e93a3fd6e826abbd3c3e302a07a37e0901373ae01e0008f707250d171df81a53a5405d41895ac825e0100ec20313c0d91cddccd3d0c7efcca9bd80908fecb0f9cfddf1eff4e7a1b1eae482f0fdaee1e1928b86d888ed909c968797a7cf
      flags: 0
    UnityEditor.ShaderGraph.FloatingWindowsLayout2:
      value: 181344140043005e1a220d3b1f364b524c0c5a27130c293326201334cee5322ca0bd30e8eb293a707b0fd0180b3d0a36fc0d3d04e649500d1002ee0b5dbd1d2c27c00ad113cb1e10e41f1addc80993b9848e9aba94a9eae7f6d0b2fbeeffe0ecf4fd8afdacbbf9d4e8f5ade3e1928b86ccf584cdd6c38b9da190c991e48184819786c994c0c582898fdfeeddbf8dba
      flags: 0
    UnityEditor.ShaderGraph.InspectorWindow:
      value: 18135939215a0a5004000b0e15254b524c1119263f2d6a722016393ce1eb3d36e5d339f9a5602b2e2c07a37e0901373ae01e0008f707250d171df81a53a5485d41895ac825e0100ec20313c0d91cddccd3d0c7efcca9bd80908fecb0f9cfddf1eff4e7a1b1eae482f0fcaee1e1928b86d888ed969b938797a7cf
      flags: 0
    vcSharedLogLevel:
      value: 0d5e400f0650
      flags: 0
  m_VCAutomaticAdd: 1
  m_VCDebugCom: 0
  m_VCDebugCmd: 0
  m_VCDebugOut: 0
  m_SemanticMergeMode: 2
  m_VCShowFailedCheckout: 1
  m_VCOverwriteFailedCheckoutAssets: 1
  m_VCProjectOverlayIcons: 1
  m_VCHierarchyOverlayIcons: 1
  m_VCOtherOverlayIcons: 1
  m_VCAllowAsyncUpdate: 1
